0
SECTION
2
HEADER
9
$INSUNITS
70
4
9
$ACADVER
1
AC1014
9
$HANDSEED
5
FFFF
0
ENDSEC
0
SECTION
2
TABLES
0
TABLE
2
VPORT
5
8
100
AcDbSymbolTable
0
ENDTAB
0
TABLE
2
LTYPE
5
5
100
AcDbSymbolTable
0
LTYPE
5
14
100
AcDbSymbolTableRecord
100
AcDbLinetypeTableRecord
2
BYBLOCK
70
0
0
LTYPE
5
15
100
AcDbSymbolTableRecord
100
AcDbLinetypeTableRecord
2
BYLAYER
70
0
0
ENDTAB
0
TABLE
2
LAYER
5
2
100
AcDbSymbolTable
70
2
0
LAYER
5
50
100
AcDbSymbolTableRecord
100
AcDbLayerTableRecord
2
0
70
0
6
CONTINUOUS
0
ENDTAB
0
TABLE
2
STYLE
5
3
100
AcDbSymbolTable
70
1
0
STYLE
5
11
100
AcDbSymbolTableRecord
100
AcDbTextStyleTableRecord
2
STANDARD
70
0
0
ENDTAB
0
TABLE
2
VIEW
5
6
100
AcDbSymbolTable
70
0
0
ENDTAB
0
TABLE
2
UCS
5
7
100
AcDbSymbolTable
70
0
0
ENDTAB
0
TABLE
2
APPID
5
9
100
AcDbSymbolTable
70
2
0
APPID
5
12
100
AcDbSymbolTableRecord
100
AcDbRegAppTableRecord
2
ACAD
70
0
0
ENDTAB
0
TABLE
2
DIMSTYLE
5
A
100
AcDbSymbolTable
70
1
0
ENDTAB
0
TABLE
2
BLOCK_RECORD
5
1
100
AcDbSymbolTable
70
1
0
BLOCK_RECORD
5
1F
100
AcDbSymbolTableRecord
100
AcDbBlockTableRecord
2
*MODEL_SPACE
0
BLOCK_RECORD
5
1B
100
AcDbSymbolTableRecord
100
AcDbBlockTableRecord
2
*PAPER_SPACE
0
ENDTAB
0
ENDSEC
0
SECTION
2
BLOCKS
0
BLOCK
5
20
100
AcDbEntity
100
AcDbBlockBegin
2
*MODEL_SPACE
0
ENDBLK
5
21
100
AcDbEntity
100
AcDbBlockEnd
0
BLOCK
5
1C
100
AcDbEntity
100
AcDbBlockBegin
2
*PAPER_SPACE
0
ENDBLK
5
1D
100
AcDbEntity
100
AcDbBlockEnd
0
ENDSEC
0
SECTION
2
ENTITIES
0
LWPOLYLINE
5
100
100
AcDbEntity
8
0
100
AcDbPolyline
90
32
70
1
43
0.0
10
96.000001162290602
20
10.00000000000008
10
96.000001162290573
20
50.000000745058067
10
78.000001162290573
20
50.00000074505806
10
78.000001162290587
20
10.000000000000071
10
3.4986059074065423
20
10.000000000000027
10
3.4986059074066134
20
83.136459739507572
10
898.49860590740661
20
83.136459739507572
10
898.49860590740661
20
10.000000000000027
10
845.91979499808281
20
10.000000000000062
10
845.91979499808281
20
50.000000745058067
10
827.91979499808281
20
50.000000745058067
10
827.91979499808281
20
10
10
766.60817953056812
20
10.000000000000107
42
0.14064219363222388
10
726.83895050964225
20
-1.4121991017053181
42
-0.23551870105373127
10
669.09100612021143
20
-6.9903489441630473
42
0.09183459067620639
10
658.34580031807536
20
-4.9999999999998934
10
620.71303522289224
20
-4.9999999999998934
10
620.71303522289224
20
50.000000745058067
10
602.71303522289236
20
50.000000745058067
10
602.71303522289236
20
-4.9999999999998934
10
470.90507116512401
20
-4.9999999999998934
10
470.90507116512401
20
50.000000745058067
10
452.90507116512401
20
50.000000745058067
10
452.90507116512401
20
-4.9999999999998845
10
319.84511447177562
20
-4.9999999999998845
10
319.84511447177562
20
50.000000745058067
10
301.84511447177562
20
50.00000074505806
10
301.84511447177562
20
-4.9999999999998845
10
241.65419968192464
20
-4.9999999999998845
42
0.091834590676208888
10
230.90899387978845
20
-6.9903489441630962
42
-0.23551870105373057
10
173.16104949035781
20
-1.4121991017053492
42
0.14064219363222435
10
133.39182046943196
20
10.000000000000098
0
ENDSEC
0
SECTION
2
OBJECTS
0
DICTIONARY
5
C
100
AcDbDictionary
3
ACAD_GROUP
350
D
3
ACAD_MLINESTYLE
350
17
0
DICTIONARY
5
D
100
AcDbDictionary
0
DICTIONARY
5
1A
330
C
100
AcDbDictionary
0
DICTIONARY
5
17
100
AcDbDictionary
0
ENDSEC
0
EOF
