0
SECTION
2
HEADER
9
$INSUNITS
70
4
9
$ACADVER
1
AC1014
9
$HANDSEED
5
FFFF
0
ENDSEC
0
SECTION
2
TABLES
0
TABLE
2
VPORT
5
8
100
AcDbSymbolTable
0
ENDTAB
0
TABLE
2
LTYPE
5
5
100
AcDbSymbolTable
0
LTYPE
5
14
100
AcDbSymbolTableRecord
100
AcDbLinetypeTableRecord
2
BYBLOCK
70
0
0
LTYPE
5
15
100
AcDbSymbolTableRecord
100
AcDbLinetypeTableRecord
2
BYLAYER
70
0
0
ENDTAB
0
TABLE
2
LAYER
5
2
100
AcDbSymbolTable
70
2
0
LAYER
5
50
100
AcDbSymbolTableRecord
100
AcDbLayerTableRecord
2
0
70
0
6
CONTINUOUS
0
ENDTAB
0
TABLE
2
STYLE
5
3
100
AcDbSymbolTable
70
1
0
STYLE
5
11
100
AcDbSymbolTableRecord
100
AcDbTextStyleTableRecord
2
STANDARD
70
0
0
ENDTAB
0
TABLE
2
VIEW
5
6
100
AcDbSymbolTable
70
0
0
ENDTAB
0
TABLE
2
UCS
5
7
100
AcDbSymbolTable
70
0
0
ENDTAB
0
TABLE
2
APPID
5
9
100
AcDbSymbolTable
70
2
0
APPID
5
12
100
AcDbSymbolTableRecord
100
AcDbRegAppTableRecord
2
ACAD
70
0
0
ENDTAB
0
TABLE
2
DIMSTYLE
5
A
100
AcDbSymbolTable
70
1
0
ENDTAB
0
TABLE
2
BLOCK_RECORD
5
1
100
AcDbSymbolTable
70
1
0
BLOCK_RECORD
5
1F
100
AcDbSymbolTableRecord
100
AcDbBlockTableRecord
2
*MODEL_SPACE
0
BLOCK_RECORD
5
1B
100
AcDbSymbolTableRecord
100
AcDbBlockTableRecord
2
*PAPER_SPACE
0
ENDTAB
0
ENDSEC
0
SECTION
2
BLOCKS
0
BLOCK
5
20
100
AcDbEntity
100
AcDbBlockBegin
2
*MODEL_SPACE
0
ENDBLK
5
21
100
AcDbEntity
100
AcDbBlockEnd
0
BLOCK
5
1C
100
AcDbEntity
100
AcDbBlockBegin
2
*PAPER_SPACE
0
ENDBLK
5
1D
100
AcDbEntity
100
AcDbBlockEnd
0
ENDSEC
0
SECTION
2
ENTITIES
0
LWPOLYLINE
5
100
100
AcDbEntity
8
0
100
AcDbPolyline
90
8
70
1
43
0.0
10
85
20
23
10
85
20
19.999999999999996
42
0.41421356237309503
10
87
20
18
10
97.000000000000014
20
18
42
0.41421356237309503
10
98.999999999999986
20
20
10
99.000000000000028
20
23
42
0.41421356237309503
10
97.000000000000028
20
25
10
87
20
25
42
0.41421356237309503
0
LWPOLYLINE
5
101
100
AcDbEntity
8
0
100
AcDbPolyline
90
44
70
1
43
0.0
10
113.30986445060088
20
0
10
66.690135549399116
20
0
10
66.690135549399116
20
4.0000000596046474
10
44.981951417927483
20
4
10
45.000000670552254
20
0
10
30.000000447034836
20
0
10
30.00505081985477
20
4
10
3.9999999999999996
20
4
10
4
20
4.0791521987687425
10
0
20
4.0791521987687425
10
0
20
12.000000178813934
10
4
20
12.000000178813934
10
4
20
25.999999821186066
10
0
20
25.999999821186066
10
0
20
33.920847801231261
10
4
20
33.920847801231261
10
3.9999999999999991
20
34
10
30.00505081985477
20
34
10
30.000000447034836
20
38
10
45.000000670552254
20
38
10
44.981951417927483
20
34
10
66.690135549399116
20
33.999999940395348
10
66.690135549399116
20
38
10
113.30986445060088
20
38
10
113.30986445060088
20
33.999999940395348
10
135.01804858207251
20
34
10
134.99999932944775
20
38
10
149.99999955296516
20
38
10
149.99494918014523
20
34
10
176
20
34
10
176
20
33.920847801231261
10
180
20
33.920847801231261
10
180
20
25.999999821186066
10
176
20
25.999999821186066
10
176
20
12.000000178813934
10
180
20
12.000000178813934
10
180
20
4.0791521987687425
10
176
20
4.0791521987687425
10
176
20
4
10
149.99494918014523
20
4
10
149.99999955296516
20
0
10
134.99999932944775
20
0
10
135.01804858207251
20
4
10
113.30986445060088
20
4.0000000596046474
0
ENDSEC
0
SECTION
2
OBJECTS
0
DICTIONARY
5
C
100
AcDbDictionary
3
ACAD_GROUP
350
D
3
ACAD_MLINESTYLE
350
17
0
DICTIONARY
5
D
100
AcDbDictionary
0
DICTIONARY
5
1A
330
C
100
AcDbDictionary
0
DICTIONARY
5
17
100
AcDbDictionary
0
ENDSEC
0
EOF
